{
    "VOCABULARY_NAME": "Nicolas_test",
    "VOCABULARY_PURL": "https://purls.helmholtz-metadaten.de/vp/Nicolas-54117889-vp",
    "VOCPOPULI_GLOBAL_ID": "Nicolas-54117889-vp",
    "VOCABULARY_PUBLISHER": "Nicol\u00e1s  Cevallos Cuevas",
    "VOCABULARY_PUBLISHED_ON_UTC": "2024-06-19T11:13:20.108177",
    "VOCABULARY_UPDATED_ON_UTC": "2024-06-19T11:13:20.108188",
    "VOCABULARY_LICENSE": {
        "name": null,
        "html_url": null
    },
    "VOCABULARY_CONTRIBUTORS": [
        {
            "name": "Nicol\u00e1s  Cevallos Cuevas",
            "email": "nicolas.cevallos-cueva@hereon.de",
            "commits": 6,
            "additions": 0,
            "deletions": 0
        }
    ]
}